{
	"AWSTemplateFormatVersion": "2010-09-09",
	"Description": "Lambda resource stack creation using Amplify CLI",
	"Parameters": {
		"env": {
			"Type": "String"
		},
		"apiserverlessappsyncGraphQLAPIIdOutput": {
			"Type": "String",
			"Default": "apiserverlessappsyncGraphQLAPIIdOutput"
		},
		"apiserverlessappsyncGraphQLAPIEndpointOutput": {
			"Type": "String",
			"Default": "apiserverlessappsyncGraphQLAPIEndpointOutput"
		}
	},
	"Conditions": {
		"ShouldNotCreateEnvResources": {
			"Fn::Equals": [
				{
					"Ref": "env"
				},
				"NONE"
			]
		}
	},
	"Resources": {
		"LambdaFunction": {
			"Type": "AWS::Lambda::Function",
			"Metadata": {
				"aws:asset:path": "./src",
				"aws:asset:property": "Code"
			},
			"Properties": {
				"Handler": "index.handler",
				"FunctionName": {
					"Fn::If": [
						"ShouldNotCreateEnvResources",
						"serverlessappsync8bc42c6b",
						{
							"Fn::Join": [
								"",
								[
									"serverlessappsync8bc42c6b",
									"-",
									{
										"Ref": "env"
									}
								]
							]
						}
					]
				},
				"Environment": {
					"Variables": {
						"ENV": {
							"Ref": "env"
						},
						"REGION": {
							"Ref": "AWS::Region"
						}
					}
				},
				"Role": {
					"Fn::GetAtt": [
						"LambdaExecutionRole",
						"Arn"
					]
				},
				"Runtime": "nodejs10.x",
				"Timeout": "25",
				"Code": {
					"S3Bucket": "amplify-serverless-appsync-testone-112956-deployment",
					"S3Key": "amplify-builds/serverlessappsync8bc42c6b-55474e445832726d7872-build.zip"
				}
			}
		},
		"LambdaExecutionRole": {
			"Type": "AWS::IAM::Role",
			"Properties": {
				"RoleName": {
					"Fn::If": [
						"ShouldNotCreateEnvResources",
						"serverlessappsyncLambdaRole021ace0c",
						{
							"Fn::Join": [
								"",
								[
									"serverlessappsyncLambdaRole021ace0c",
									"-",
									{
										"Ref": "env"
									}
								]
							]
						}
					]
				},
				"AssumeRolePolicyDocument": {
					"Version": "2012-10-17",
					"Statement": [
						{
							"Effect": "Allow",
							"Principal": {
								"Service": [
									"lambda.amazonaws.com"
								]
							},
							"Action": [
								"sts:AssumeRole"
							]
						}
					]
				}
			}
		},
		"lambdaexecutionpolicy": {
			"DependsOn": [
				"LambdaExecutionRole"
			],
			"Type": "AWS::IAM::Policy",
			"Properties": {
				"PolicyName": "lambda-execution-policy",
				"Roles": [
					{
						"Ref": "LambdaExecutionRole"
					}
				],
				"PolicyDocument": {
					"Version": "2012-10-17",
					"Statement": [
						{
							"Effect": "Allow",
							"Action": [
								"logs:CreateLogGroup",
								"logs:CreateLogStream",
								"logs:PutLogEvents"
							],
							"Resource": {
								"Fn::Sub": [
									"arn:aws:logs:${region}:${account}:log-group:/aws/lambda/${lambda}:log-stream:*",
									{
										"region": {
											"Ref": "AWS::Region"
										},
										"account": {
											"Ref": "AWS::AccountId"
										},
										"lambda": {
											"Ref": "LambdaFunction"
										}
									}
								]
							}
						}
					]
				}
			}
		},
		"LambdaTriggerPolicyTodo": {
			"DependsOn": [
				"LambdaExecutionRole"
			],
			"Type": "AWS::IAM::Policy",
			"Properties": {
				"PolicyName": "amplify-lambda-execution-policy-Todo",
				"Roles": [
					{
						"Ref": "LambdaExecutionRole"
					}
				],
				"PolicyDocument": {
					"Version": "2012-10-17",
					"Statement": [
						{
							"Effect": "Allow",
							"Action": [
								"dynamodb:DescribeStream",
								"dynamodb:GetRecords",
								"dynamodb:GetShardIterator",
								"dynamodb:ListStreams"
							],
							"Resource": {
								"Fn::ImportValue": {
									"Fn::Sub": "${apiserverlessappsyncGraphQLAPIIdOutput}:GetAtt:TodoTable:StreamArn"
								}
							}
						}
					]
				}
			}
		},
		"LambdaEventSourceMappingTodo": {
			"Type": "AWS::Lambda::EventSourceMapping",
			"DependsOn": [
				"LambdaTriggerPolicyTodo",
				"LambdaExecutionRole"
			],
			"Properties": {
				"BatchSize": 100,
				"Enabled": true,
				"EventSourceArn": {
					"Fn::ImportValue": {
						"Fn::Sub": "${apiserverlessappsyncGraphQLAPIIdOutput}:GetAtt:TodoTable:StreamArn"
					}
				},
				"FunctionName": {
					"Fn::GetAtt": [
						"LambdaFunction",
						"Arn"
					]
				},
				"StartingPosition": "LATEST"
			}
		}
	},
	"Outputs": {
		"Name": {
			"Value": {
				"Ref": "LambdaFunction"
			}
		},
		"Arn": {
			"Value": {
				"Fn::GetAtt": [
					"LambdaFunction",
					"Arn"
				]
			}
		},
		"Region": {
			"Value": {
				"Ref": "AWS::Region"
			}
		},
		"LambdaExecutionRole": {
			"Value": {
				"Ref": "LambdaExecutionRole"
			}
		}
	}
}